IU Health Internship
…
New names:
New names:
New names:
New names:
New names:
New names:
• `property` -> `property...7`
• `property` -> `property...8`

dc0

# A tibble: 24 × 7
   namespace  name       code       id         status propertyname  property    
   <list>     <list>     <list>     <list>     <list> <chr>         <list>      
 1 <list [1]> <list [1]> <list [1]> <list [1]> <list> property...7  <named list>
 2 <list [1]> <list [1]> <list [1]> <list [1]> <list> property...8  <named list>
 3 <list [1]> <list [1]> <list [1]> <list [1]> <list> property...10 <NULL>      
 4 <list [1]> <list [1]> <list [1]> <list [1]> <list> property...11 <NULL>      
 5 <list [1]> <list [1]> <list [1]> <list [1]> <list> property...7  <named list>
 6 <list [1]> <list [1]> <list [1]> <list [1]> <list> property...8  <named list>
 7 <list [1]> <list [1]> <list [1]> <list [1]> <list> property...10 <NULL>      
 8 <list [1]> <list [1]> <list [1]> <list [1]> <list> property...11 <NULL>      
 9 <list [1]> <list [1]> <list [1]> <list [1]> <list> property...7  <named list>
10 <list [1]> <list [1]> <list [1]> <list [1]> <list> property...8  <named list>
# … with 14 more rows
…
